<?xml version="1.0" standalone="no"?>
<!DOCTYPE svg PUBLIC "-//W3C//DTD SVG 1.1//EN" "http://www.w3.org/Graphics/SVG/1.1/DTD/svg11.dtd" >
<svg xmlns="http://www.w3.org/2000/svg">
<metadata>Generated by IcoMoon</metadata>
<defs>
<font id="icomoon" horiz-adv-x="1024">
<font-face units-per-em="1024" ascent="960" descent="-64" />
<missing-glyph horiz-adv-x="1024" />
<glyph unicode="&#x20;" horiz-adv-x="512" d="" />
<glyph unicode="&#xe900;" glyph-name="csv" d="M203.435 933.604c-13.653-4.779-27.079-17.522-34.361-32.313l-6.372-12.971v-873.813l4.779-10.468c7.054-15.019 17.749-25.941 32.313-33.223l12.971-6.372h307.2c286.72 0 307.883 0.228 315.847 3.868 15.246 6.827 25.941 17.294 33.223 31.858l7.054 13.881v721.806l-100.807 100.58-100.807 100.807-230.741-0.228c-196.38 0-232.334-0.683-240.299-3.413zM650.809 833.252c0-67.812 0.455-73.045 4.779-82.603 5.689-12.516 18.204-25.941 30.492-32.54 8.647-4.779 12.288-5.006 83.74-5.689l74.411-0.683v-454.884l-648.533 1.138v312.434c0 345.202-1.138 321.081 14.336 330.411 7.054 4.324 12.971 4.551 224.142 4.551h216.633v-72.135zM762.311 744.277c-63.26-0.683-66.674 0-75.093 13.881-4.096 6.827-4.551 11.833-4.551 65.308v58.027l136.533-136.533-56.889-0.683zM843.776 129.877l-0.683-95.118-5.689-10.923c-6.827-13.426-19.115-23.666-30.948-26.624-13.198-2.958-564.11-2.731-575.033 0.455-11.833 3.186-25.031 15.701-30.948 29.355-4.551 10.695-4.779 14.336-4.779 102.855 0 50.517 0 92.388 0 93.525 0 0.91 145.863 1.593 324.267 1.593h324.494l-0.683-95.118zM264.875 673.052c-3.868-4.324-4.324-8.647-4.324-43.008s0.455-38.684 4.324-43.008l4.324-4.779h249.628c234.61 0 250.084 0.228 254.635 4.096 4.779 3.641 5.006 5.689 5.006 43.691s-0.228 40.050-5.006 43.691c-4.551 3.868-20.025 4.096-254.635 4.096h-249.628l-4.324-4.779zM423.253 630.044v-15.929h-131.982v31.858h131.982v-15.929zM584.818 630.044v-15.929h-129.707v31.858h129.707v-15.929zM746.382 630.044v-15.929h-129.707v31.858h129.707v-15.929zM266.012 543.801l-5.461-4.324-1.365-204.8 5.689-6.599 5.461-6.372h249.401c246.67 0 249.401 0 253.952 4.551 4.324 4.551 4.551 7.509 4.551 104.676 0 55.068 0 101.945 0 104.22 0 2.048-2.048 5.916-4.551 8.42-4.551 4.551-7.509 4.551-253.497 4.551-241.664 0-248.946-0.228-254.18-4.324zM423.253 500.338v-15.929h-131.982v31.858h131.982v-15.929zM584.818 500.338v-15.929h-129.707v31.858h129.707v-15.929zM746.382 500.338v-15.929h-129.707v31.858h129.707v-15.929zM422.798 435.029l0.683-16.612h-132.21v15.474c0 8.647 0.683 16.384 1.593 17.067 0.91 0.91 30.265 1.365 65.308 1.138l63.943-0.683 0.683-16.384zM584.363 435.029l0.683-16.612h-129.934v34.133l64.398-0.455 64.171-0.683 0.683-16.384zM746.382 435.484v-17.067h-129.707v15.474c0 8.647 0.683 16.384 1.593 17.067 0.683 0.91 30.037 1.593 64.853 1.593h63.26v-17.067zM423.253 371.769v-17.067h-63.716c-35.044 0-64.398-0.228-65.308-0.455-1.138-0.455-2.048 7.282-2.503 17.067l-0.683 17.522h132.21v-17.067zM584.818 370.631v-15.929h-129.707v31.858h129.707v-15.929zM746.382 370.631v-15.929h-129.707v31.858h129.707v-15.929zM325.86 188.359c-14.108-2.731-35.954-15.246-45.284-25.714-13.881-16.156-19.797-31.63-20.025-52.565 0-16.156 0.91-20.025 7.509-33.451 9.102-18.66 25.259-33.678 43.236-40.732 10.012-3.868 19.342-5.234 40.505-6.144 25.941-0.91 27.989-0.683 32.54 3.868 4.779 4.779 6.372 15.019 2.958 19.797-3.641 5.689-12.743 7.737-33.906 7.737-16.612 0-24.576 1.138-31.403 4.324-31.175 14.108-39.367 52.11-16.612 76.686 11.833 12.971 23.893 16.839 52.338 16.839 19.342 0 22.983 0.683 26.852 4.551 6.144 6.144 5.916 16.839-0.455 22.756-4.324 3.868-7.737 4.551-26.624 4.324-12.060-0.228-26.169-1.138-31.63-2.276zM456.932 187.676c-12.743-4.551-19.342-9.557-26.169-19.797-14.791-22.3-6.827-52.793 17.294-66.446 11.378-6.372 14.564-7.054 38.002-7.964 21.618-0.91 26.396-1.82 29.582-5.234 5.234-5.689 5.006-16.839-0.228-22.528-3.868-4.324-6.827-4.551-42.098-4.551-35.044 0-38.457-0.455-44.146-4.779-7.282-5.689-7.964-15.929-1.365-22.528 4.324-4.324 7.509-4.551 45.284-4.551 40.050 0 40.732 0 52.793 6.372 28.9 15.019 34.816 50.745 12.516 75.093-9.33 10.24-17.067 12.743-46.649 14.108-25.714 1.365-28.672 1.82-32.313 6.599-5.916 7.282-5.461 16.612 0.91 22.528 5.006 4.779 7.509 5.006 43.463 5.006 37.319 0 38.002 0 43.463 5.689 3.186 2.958 5.689 7.737 5.689 10.24 0 2.731-2.503 7.282-5.689 10.24-5.461 5.689-6.144 5.689-43.691 5.689-25.941-0.228-40.96-1.138-46.649-3.186zM589.596 184.946c-2.731-3.413-4.779-7.509-4.779-9.33 0-3.413 46.649-128.114 51.428-137.671 4.096-7.737 13.426-10.468 21.163-6.144 4.551 2.731 10.24 15.246 31.403 71.452 14.108 37.547 25.714 70.087 25.714 72.363 0 5.916-10.24 15.246-16.612 15.246-9.102 0-14.108-8.647-30.72-53.476-8.875-23.666-16.839-43.008-17.749-42.78s-9.102 20.708-18.204 45.511c-9.33 24.804-18.66 46.421-20.708 48.014-6.372 4.779-15.929 3.413-20.935-3.186z" />
<glyph unicode="&#xe901;" glyph-name="email" d="M500.85 921.088c-10.012-5.916-106.041-87.154-110.592-93.753-11.378-16.156 5.916-40.505 25.941-36.636 4.324 0.91 22.073 14.336 49.152 37.547 23.211 19.797 43.236 36.636 44.146 37.319 1.138 0.683 20.935-14.791 43.918-34.588 22.756-19.57 45.056-36.864 49.152-38.684 19.797-8.192 40.050 14.564 30.037 33.451-2.276 4.324-96.484 85.106-110.82 95.118-8.42 5.916-10.923 6.144-20.935 0.228zM262.827 754.29c-13.198-6.144-23.666-16.612-31.175-30.948l-5.234-10.24-1.365-255.772-52.793 37.547c-29.127 20.708-52.793 38.457-52.793 39.367 0 1.138 16.156 15.246 35.726 31.858 19.797 16.384 36.864 31.858 38.229 34.133 9.102 17.067-9.102 40.732-27.307 35.271-8.875-2.731-106.268-83.968-110.592-92.16-2.731-5.461-3.186-41.87-3.186-247.125 0-262.599-0.228-255.545 12.971-278.073 12.971-22.073 30.265-34.133 59.62-41.643 15.929-3.868 34.361-4.096 385.934-4.096s370.005 0.228 385.934 4.096c9.33 2.503 21.39 6.599 26.852 9.33 11.833 6.144 28.444 22.756 34.588 34.588 11.378 22.528 11.15 17.749 11.15 275.342 0 142.905-0.91 243.029-2.048 246.215-3.186 8.192-100.807 90.34-110.592 92.843-19.57 5.461-37.319-19.797-25.714-36.181 1.593-2.503 18.432-17.522 37.092-33.451 18.887-15.701 34.361-29.582 34.816-30.492 0.228-1.138-17.522-14.791-39.822-30.492s-46.421-32.768-53.476-38.002l-13.198-9.33v124.928c0 140.402 0.228 137.444-16.612 156.558-5.234 5.916-14.336 12.971-20.935 15.929l-11.378 5.461h-473.316l-11.378-5.461zM742.741 706.048c3.186-3.186 3.641-19.342 3.641-144.043v-140.629l-17.522-12.516c-9.785-6.827-60.302-42.325-112.185-78.962-51.883-36.864-96.939-68.722-100.124-70.77-6.599-4.551 13.426-17.749-150.642 98.532l-90.567 63.943v139.947c0 126.976 0.455 140.174 3.868 144.043s13.653 4.096 231.879 4.096c204.345 0 228.466-0.455 231.652-3.641zM237.34 388.38c156.558-110.592 145.18-102.4 144.498-104.676-0.455-0.91-46.194-36.636-101.945-79.189-64.853-49.835-102.4-79.872-104.448-83.968-7.282-15.474 5.006-34.361 22.528-34.361 7.964 0 17.522 6.599 110.82 78.052 55.979 42.78 105.586 80.782 110.137 84.196l8.192 6.144 38.002-27.307c39.367-28.217 45.284-30.72 56.661-24.576 2.731 1.365 19.797 13.198 38.002 26.396s34.133 23.893 35.499 23.893c1.138 0 48.924-35.499 105.813-79.189 56.889-43.463 106.496-81.010 110.137-83.513 8.192-5.006 17.294-5.234 25.941-0.91 12.060 6.372 15.701 26.169 6.599 36.409-2.958 2.958-35.499 28.444-72.363 56.434-114.688 87.381-130.844 99.669-131.527 101.49-0.228 1.138 7.509 7.509 17.067 14.336 9.785 7.054 56.661 40.050 104.22 73.728s101.945 72.135 121.060 85.788c18.887 13.426 35.044 24.576 35.726 24.576 0.91 0 1.138-97.621 0.91-217.088-0.683-216.405-0.683-217.316-5.461-223.687-2.503-3.413-8.192-8.647-12.288-11.378l-7.509-5.234h-382.066c-423.481 0-389.12-1.365-401.636 15.246l-6.372 8.192-0.683 217.088c-0.228 119.239 0 216.86 0.683 216.86s60.757-42.098 133.803-93.753zM367.275 642.332c-7.737-3.868-14.564-13.881-14.564-21.845 0-7.509 8.192-19.797 15.019-22.3 7.737-2.958 278.528-2.958 286.265 0 6.827 2.503 15.019 14.791 15.019 22.3 0 8.647-6.144 17.749-14.564 21.845-6.827 3.186-22.528 3.641-144.043 3.641-116.508 0-136.988-0.683-143.132-3.641zM372.736 544.256c-7.282-1.138-17.294-10.695-19.115-18.204-2.048-7.964 0.91-16.384 8.192-23.666l6.372-6.599h284.444l7.054 5.916c12.516 10.468 11.605 29.81-1.82 38.912-5.461 3.868-15.019 4.096-142.45 4.324-75.093 0.228-139.264-0.228-142.677-0.683zM373.191 444.132c-8.192-1.593-17.977-11.605-19.57-20.252-0.91-4.551 0-9.785 2.276-14.108 7.509-14.564 3.868-14.108 113.323-14.108h99.669l6.827 6.372c5.006 4.324 7.509 8.875 8.42 15.474 1.138 8.42 0.455 10.468-6.827 18.204l-7.964 8.875-95.346 0.228c-52.338 0.228-97.621 0-100.807-0.683z" />
<glyph unicode="&#xe902;" glyph-name="email2" d="M447.602 818.916l-65.536-43.236h-238.706v-156.558l-50.062-32.54-50.062-32.768 0.683-285.582 0.455-285.582h932.978l0.455 285.582 0.683 285.582-100.124 65.991v155.876h-234.382l-64.853 43.236c-35.726 23.893-65.081 43.236-65.308 43.236-0.455 0-30.265-19.57-66.219-43.236zM553.415 802.759c20.935-14.108 38.229-25.941 38.229-26.169 0-0.455-34.816-0.91-77.369-0.91s-77.369 0.683-77.369 1.82c0.228 1.82 72.818 50.062 76.231 50.29 1.138 0.228 19.342-11.15 40.277-25.031zM850.603 609.109l0.455-138.126-67.584-57.799c-37.319-31.858-92.388-78.734-122.425-104.22-30.037-25.714-75.321-64.171-100.352-85.561l-45.966-38.912-76.914 63.716c-42.553 35.271-119.922 99.669-172.032 143.36l-95.118 79.417v137.216c0 75.321 0.683 137.899 1.593 138.581 0.683 0.91 153.6 1.365 339.513 1.138l338.148-0.683 0.683-138.126zM143.36 538.567c0-43.463-0.228-45.511-3.868-42.325-2.276 1.82-16.156 13.426-30.948 25.714-18.66 15.474-26.169 22.983-24.576 24.576 3.413 3.413 55.524 37.547 57.799 37.774 0.91 0.228 1.593-20.48 1.593-45.739zM912.498 564.053c15.019-10.012 27.307-18.66 27.307-19.115 0-1.365-58.482-51.428-60.075-51.428-0.683 0-1.365 20.48-1.365 45.739 0 39.14 0.455 45.511 3.413 44.601 1.82-0.91 15.474-9.557 30.72-19.797zM158.606 444.132c46.194-38.684 116.964-97.166 156.786-130.389 39.822-32.996 101.035-84.196 135.851-113.323l63.26-53.020 5.006 4.096c2.958 2.276 100.352 84.423 216.405 182.727s211.854 179.086 212.992 179.314c1.365 0.455 2.276-92.16 2.276-250.766v-251.676l-879.502 1.138-0.683 250.994c-0.228 137.899 0.455 250.766 1.365 250.766 1.138 0 39.822-31.403 86.244-69.86zM499.484 642.332c-31.63-6.599-66.674-27.989-86.471-52.793-13.881-17.749-27.534-44.373-33.451-65.764-6.372-23.666-6.827-67.812-0.91-89.429 18.432-66.901 78.962-106.041 151.097-97.849 21.39 2.276 46.421 9.102 53.703 14.336 3.868 2.731 3.868 3.868 1.138 11.605-2.276 6.144-3.868 7.964-6.599 6.827-25.714-10.923-66.446-15.474-90.795-10.012-58.482 12.971-91.932 61.895-88.064 128.569 1.593 26.396 5.916 44.373 15.474 63.488 24.121 48.242 65.764 74.183 119.012 74.411 45.511 0 77.369-18.66 95.573-55.524 22.983-47.559 12.060-116.053-21.618-132.892-12.743-6.599-16.384-6.599-24.348 0.228-5.916 5.006-6.372 6.827-6.144 21.163 0 8.42 3.868 35.271 8.647 59.62 4.551 24.348 7.509 45.056 6.599 45.966-3.641 3.641-29.355 8.875-43.918 8.875-62.123 0-110.82-50.972-106.496-111.73 1.365-17.977 7.964-31.403 20.708-41.643 10.923-8.647 31.175-10.695 49.152-4.779 12.060 3.868 31.175 19.115 36.409 29.355 4.096 7.282 7.054 5.689 7.054-3.868s7.282-20.935 16.156-25.714c10.923-5.461 32.313-3.413 47.332 5.006 52.565 28.444 63.943 121.287 21.845 178.404-9.33 12.743-27.762 27.534-44.601 35.499-24.804 12.060-63.716 15.474-96.484 8.647zM562.062 546.532c2.958-2.958-8.875-59.62-15.474-73.273-15.929-34.133-50.745-49.38-67.356-29.582-7.737 9.102-9.102 15.019-7.737 34.588 2.731 42.098 36.636 73.956 75.548 71.225 7.282-0.455 14.108-1.82 15.019-2.958z" />
<glyph unicode="&#xe903;" glyph-name="html" d="M233.244 925.867c-0.683-1.138-4.096-2.276-7.509-2.276-8.647 0-28.217-11.833-36.636-22.073-3.868-4.779-9.102-14.108-11.605-20.708-4.551-11.833-4.551-18.887-4.551-431.218 0-278.3 0.91-421.888 2.276-427.577 3.641-12.971 15.929-29.582 27.989-37.547 22.528-15.019 6.827-14.336 307.655-14.336s285.127-0.683 307.655 14.336c12.060 7.964 24.348 24.576 27.989 37.547 1.365 5.689 2.276 129.252 2.276 364.544v356.124l-185.458 185.458h-214.357c-140.402 0-214.812-0.683-215.723-2.276zM634.88 827.563c1.138-61.668 1.593-67.356 5.916-77.141 6.372-13.653 19.57-26.396 35.044-33.678 12.516-5.689 12.971-5.916 78.052-6.599l65.308-0.91-0.455-230.286-0.683-230.059h-614.4v309.476c0 305.38 0 309.476 4.551 317.212 5.689 9.557 14.336 16.156 23.666 18.204 4.096 0.683 96.028 1.138 204.572 0.91l197.291-0.683 1.138-66.446zM737.28 810.951l69.404-69.632-59.164 0.683c-58.254 0.683-59.164 0.683-66.901 6.144-14.564 10.468-16.156 17.522-16.156 78.279 0 29.582 0.683 53.931 1.82 53.931 0.91 0 32.768-31.175 70.997-69.404zM819.2 126.692c0-84.196-0.455-92.388-4.324-100.807-2.276-5.006-6.372-10.923-8.875-13.198-11.833-10.695-5.689-10.468-294.002-10.695-190.692 0-274.66 0.683-281.031 2.503-11.378 3.186-22.756 14.564-25.941 25.941-1.593 5.916-2.503 40.505-2.503 98.532v89.202h616.676v-91.477zM582.087 676.238c-1.82-2.276-15.246-24.576-29.582-49.607s-51.2-89.202-82.148-142.677c-30.948-53.476-56.206-99.669-56.206-102.628 0-13.198 19.115-17.977 26.852-6.599 4.551 6.599 7.282 11.378 100.124 172.26 65.536 113.55 66.446 115.598 66.446 120.604 0 10.24-18.432 16.612-25.486 8.647zM311.296 591.815c-52.565-52.338-60.985-61.668-60.985-67.584s8.42-15.246 60.757-67.584c54.386-54.386 61.668-60.985 68.267-60.985 7.964 0 14.336 6.599 14.336 14.791 0 2.958-19.115 23.666-53.931 58.482l-54.158 54.158 54.158 54.158c56.661 56.889 58.254 59.164 50.29 70.542-2.276 3.413-5.689 5.006-10.695 5.006-6.144 0-14.108-7.054-68.039-60.985zM633.060 649.159c-3.413-2.276-5.006-5.689-5.006-10.695 0-6.144 6.372-13.426 53.476-60.757l53.476-53.476-53.476-53.476c-46.421-46.649-53.476-54.613-53.476-60.53 0-8.647 6.144-14.564 15.019-14.564 5.461 0 15.701 9.102 67.356 60.985 44.601 44.373 60.985 62.35 60.985 65.991 0 3.868-13.198 19.115-45.284 52.338-78.052 81.237-80.327 83.058-93.070 74.183zM254.18 182.215c-3.413-3.641-3.868-12.060-3.868-71.68 0-64.626 0.228-67.812 4.551-72.135 5.916-5.916 13.653-5.689 20.025 0 4.551 4.324 5.006 6.827 5.006 30.72v26.169h61.44v-25.031c0-23.666 0.228-25.486 5.689-30.72 6.599-6.827 12.516-7.282 19.57-1.365l5.461 4.324 0.683 64.398c0.683 68.949-0.228 76.004-10.012 78.507-8.647 2.276-16.839-0.91-19.115-7.282-1.365-3.186-2.276-16.384-2.276-29.582v-23.666h-61.44v25.714c0 29.81-2.276 35.726-14.564 35.726-4.324 0-9.102-1.82-11.15-4.096zM410.51 184.491c-5.234-3.413-7.737-11.378-5.461-17.294 2.731-7.282 8.875-10.468 20.252-10.468h9.33v-56.889c0-53.931 0.228-57.116 4.551-61.44 5.916-5.916 14.564-5.916 20.48 0 4.324 4.324 4.551 7.509 4.551 61.44v56.889h9.33c11.378 0 17.522 3.186 20.252 10.468 2.276 5.916-0.228 13.881-5.461 17.294-1.365 0.91-18.887 1.82-38.912 1.82s-37.547-0.91-38.912-1.82zM531.57 182.67c-2.048-1.82-3.641-4.779-3.641-6.144 0-1.593 0-32.313 0-68.722 0-64.171 0.228-65.991 4.779-69.86 6.144-5.234 11.605-5.234 18.204 0.228 5.234 4.096 5.461 6.144 6.599 37.547l1.138 33.223 9.102-16.384c15.019-27.079 26.396-26.852 41.415 1.365l8.647 16.156 0.683-32.996c0.455-30.037 0.91-33.223 5.461-38.002 5.916-6.372 14.108-6.599 20.025-0.683 4.324 4.324 4.551 7.509 4.551 72.363 0 63.033-0.228 68.267-4.096 71.68-2.276 2.276-7.509 3.868-11.378 3.868-8.192 0-9.785-2.276-28.9-37.547-17.522-32.768-14.108-32.768-32.768 0.91-9.102 16.384-17.977 31.175-19.797 33.223-4.551 4.551-15.474 4.324-20.025-0.228zM700.188 182.215c-3.413-3.641-3.868-12.060-3.868-71.68 0-64.626 0.228-67.812 4.551-72.135 4.096-4.096 7.509-4.551 40.505-4.551s36.409 0.455 40.96 4.551c5.916 5.461 6.372 12.971 1.365 20.025-3.186 4.779-5.006 5.006-30.72 5.006h-27.079v56.434c0 47.332-0.455 57.116-3.641 61.44-4.324 6.372-16.839 6.827-22.073 0.91z" />
<glyph unicode="&#xe904;" glyph-name="json" d="M191.147 912.896c-6.144-2.276-14.791-8.42-21.845-15.474-20.935-20.708-19.115 19.57-19.115-448.284 0-360.903 0.455-413.696 3.413-423.708 4.551-15.474 20.025-32.54 35.726-39.595l12.060-5.461 302.421-0.683c334.279-0.683 319.033-1.138 339.968 13.881 5.916 4.324 13.198 12.516 17.294 19.797l7.054 12.516 0.683 347.25 0.455 347.022-26.624 26.169c-40.050 38.912-78.507 75.776-130.844 125.611l-46.876 44.828-231.879-0.228c-205.028 0-232.789-0.455-241.892-3.641zM653.54 808.22l0.683-76.914 5.689-9.785c3.413-6.144 9.557-12.288 15.929-15.929l10.24-6.144 75.093-0.683 75.093-0.455 0.683-218.453 0.455-218.453h-655.36v299.236c0 329.5-0.91 310.613 14.108 319.716 7.509 4.551 10.923 4.551 232.107 4.551h224.597l0.683-76.686zM749.34 792.747c34.588-32.54 62.805-59.847 62.805-60.757 0.228-1.138-27.307-1.82-61.212-1.82-61.212 0-61.212 0-64.171 5.234-3.641 6.372-5.689 118.556-2.048 117.419 1.138-0.455 30.265-27.534 64.626-60.075zM836.949 140.345l-0.683-87.154-6.372-13.198c-4.551-9.102-9.557-15.019-15.929-19.342l-9.33-6.144-290.133-0.683c-200.704-0.455-292.864 0-298.78 1.82-10.24 2.958-25.031 19.115-28.672 31.403-1.82 6.144-2.731 35.499-2.731 94.663v85.561h653.312l-0.683-86.926zM431.9 633.685c-33.223-9.102-47.787-34.816-47.104-83.058 0.228-13.653-0.683-20.025-3.413-24.348-5.006-7.509-16.839-14.564-24.348-14.564-8.647 0-17.977-8.192-17.977-15.701 0-8.42 6.599-13.881 18.204-15.474s27.307-15.246 27.307-23.666c0-26.852 2.503-52.565 5.689-61.668 7.509-21.39 30.948-38.457 53.703-39.14 13.198-0.228 18.66 4.096 18.66 14.791 0 8.875-7.282 15.701-17.067 15.701-3.868 0-10.24 2.048-14.336 4.551-11.605 7.054-14.791 16.612-14.791 42.553 0 26.624-3.641 40.96-13.653 53.248l-6.827 8.647 7.737 10.923c10.24 14.564 12.743 24.576 12.743 52.565 0 26.624 2.731 34.361 14.336 41.415 4.096 2.503 10.468 4.551 14.336 4.551 14.108 0 23.211 15.019 15.246 24.576-5.234 6.372-15.019 7.964-28.444 4.096zM565.248 634.368c-13.881-6.827-10.24-25.714 5.461-28.217 12.743-2.276 19.797-5.461 25.941-11.833 4.779-5.006 5.461-8.42 6.827-34.361 1.82-34.361 4.096-43.691 14.336-54.613l7.509-8.42-6.827-8.647c-10.468-13.198-13.653-24.804-15.246-56.661-1.138-25.941-1.82-29.355-6.599-34.361-6.144-6.372-13.198-9.557-25.941-11.833-14.336-2.276-17.749-17.977-6.144-26.624 5.461-4.096 7.282-4.324 18.432-2.048 24.804 5.234 44.601 23.666 49.38 45.966 1.365 6.144 2.503 20.48 2.503 31.858 0 12.516 1.138 23.438 3.186 28.217 4.096 9.33 14.108 16.156 27.534 18.204 11.605 1.593 15.474 5.461 15.474 15.246 0 8.875-7.509 15.474-17.522 15.474-8.42 0-20.48 6.827-24.348 14.108-1.82 2.958-3.641 17.977-4.324 35.044-1.82 34.133-5.689 45.511-20.025 58.027-14.564 12.743-39.367 20.48-49.607 15.474zM500.395 507.392c-5.461-4.324-5.461-4.324-5.461-58.254s0-53.931 5.461-58.254c7.054-5.689 14.336-5.461 20.252 0.91 4.779 5.234 5.006 7.054 5.006 57.116v51.655l-5.689 5.461c-6.599 6.827-12.516 7.282-19.57 1.365zM280.121 191.772c-4.551-5.689-4.779-8.875-4.779-58.027v-51.883l-5.916-4.551c-11.378-8.875-21.618-3.868-25.714 12.060-3.641 15.019-15.929 19.797-25.486 10.24-6.827-6.827-5.006-24.121 3.868-36.636 22.073-31.63 70.77-23.893 81.692 12.743 2.503 8.42 3.413 23.893 3.413 60.53 0 46.649-0.228 49.835-4.779 55.524-2.958 3.868-6.827 5.916-11.15 5.916s-8.192-2.048-11.15-5.916zM363.861 192.455c-26.852-14.108-33.223-49.38-12.971-71.225 11.605-12.516 24.804-16.839 52.11-16.839 18.887 0 20.252-0.228 24.576-5.916 6.144-7.964 5.916-13.426-0.91-20.252-5.461-5.689-6.144-5.689-42.78-5.689-34.133 0-37.547-0.455-41.415-4.551-5.234-5.689-5.006-14.791 0.228-20.708 3.868-4.324 6.372-4.551 46.649-3.868l42.553 0.683 10.012 6.827c32.996 22.983 22.983 74.411-16.384 82.83-6.372 1.365-19.797 2.503-29.582 2.503-15.701 0-18.66 0.683-22.756 5.006-6.144 6.599-5.689 14.564 1.138 21.163 5.461 5.689 6.144 5.689 42.78 5.689 41.415 0 44.828 1.138 44.828 15.246 0 13.198-3.868 14.336-48.242 14.336-37.319 0-40.505-0.228-49.835-5.234zM549.319 194.503c-36.181-11.833-58.937-48.924-53.020-86.244 4.096-25.259 20.025-46.649 42.78-57.799 11.15-5.461 15.474-6.372 33.223-6.372 17.294 0 22.3 0.91 33.451 6.144 15.701 7.282 29.355 20.935 37.547 37.774 5.461 11.15 6.372 15.701 6.372 32.313-0.228 16.156-1.138 21.39-6.144 31.858-7.964 16.156-21.845 30.265-37.774 38.002-14.791 7.282-41.415 9.33-56.434 4.324zM593.465 162.645c9.557-5.006 20.48-17.067 23.438-25.941 4.096-12.516 1.593-32.768-5.234-43.236-6.827-10.24-25.714-20.935-36.864-20.935-35.271 0-59.164 35.954-44.828 67.356 10.468 22.983 41.415 34.133 63.488 22.756zM687.445 193.365c-4.551-4.551-4.779-7.054-4.779-73.045 0-65.308 0.228-68.494 4.551-72.818 5.689-5.689 16.384-5.916 21.163-0.455 3.413 3.641 3.868 10.24 3.868 45.511 0 22.756 0.683 41.415 1.82 41.415 0.91 0 13.881-16.612 28.9-37.092 42.78-57.799 46.649-60.985 59.392-48.242l5.689 5.689-0.683 66.901c-0.683 62.123-0.91 67.129-5.006 71.68-5.461 6.144-16.156 6.144-21.39 0.228-3.186-3.868-4.096-11.15-5.006-45.966l-1.138-41.188-34.133 45.284c-30.72 40.732-34.816 45.284-41.415 45.966-5.006 0.455-8.647-0.683-11.833-3.868z" />
<glyph unicode="&#xe905;" glyph-name="ods" d="M215.723 920.86c-16.156-5.461-33.906-20.935-42.325-36.864l-6.144-11.605v-853.333l6.144-11.378c10.468-19.57 33.678-37.319 49.152-37.547 2.731 0 5.006-0.91 5.006-2.276 0-2.958 551.367-3.186 557.056-0.228 2.048 1.138 8.42 3.413 13.881 5.006 19.57 5.916 37.774 24.804 43.463 45.284 1.365 5.006 2.276 138.354 2.276 365.227v357.262l-185.458 185.458-215.040-0.228c-205.938-0.228-215.495-0.455-228.011-4.779zM629.646 826.88l0.455-65.991 7.509-14.791c7.964-15.701 22.3-28.672 37.774-34.133 5.916-2.276 27.307-3.413 73.956-3.868l65.308-0.91v-461.71h-616.676v310.158c0 301.056 0.228 310.158 4.324 316.985 5.461 8.875 17.522 18.432 25.259 19.797 3.186 0.455 94.891 0.91 203.662 0.683l197.973-0.228 0.455-65.991zM732.729 808.676l69.404-69.404h-58.254c-56.661 0-58.482 0.228-65.764 5.234-17.067 11.378-17.067 11.378-17.749 75.776-0.455 31.858 0.228 57.799 1.138 57.799 1.138 0 32.996-31.175 71.225-69.404zM814.194 119.865c-0.683-105.813-0.455-103.31-18.204-115.143l-9.557-6.144-267.378-0.683c-147.228-0.455-273.977 0-281.714 0.683-16.156 1.593-26.169 7.282-34.133 19.115l-5.234 7.737v188.188h616.903l-0.683-93.753zM263.964 640.967c-5.689-6.372-5.916-14.108 0-20.025 4.324-4.324 7.509-4.551 64.626-4.551h60.302l4.551 6.144c5.461 6.827 4.551 13.198-2.503 19.57-4.096 3.413-10.695 3.868-63.488 3.868-57.572 0-58.937 0-63.488-5.006zM441.458 641.422c-5.461-5.461-5.916-12.971-0.91-20.025 3.413-5.006 3.868-5.006 68.267-5.006 61.668 0 64.853 0.228 69.177 4.551 6.144 6.144 5.689 14.108-0.683 20.025-5.234 5.006-6.827 5.006-68.267 5.006-60.075 0-63.26-0.228-67.584-4.551zM618.951 641.422c-5.689-5.689-5.916-16.384-0.455-21.163 3.641-3.413 11.605-3.868 64.626-3.868 57.116 0 60.53 0.228 64.398 4.551 5.461 6.144 5.006 15.929-1.138 20.935-4.551 3.641-10.468 4.096-63.943 4.096-55.979 0-59.164-0.228-63.488-4.551zM264.42 579.3c-5.916-6.144-6.372-12.288-1.365-19.342 3.413-5.006 3.868-5.006 64.171-5.006 33.451 0 61.895 0.91 63.26 1.82 8.875 5.689 8.192 20.48-1.138 25.259-2.731 1.593-25.941 2.503-62.35 2.503-57.344 0-57.799 0-62.578-5.234zM441.913 579.982c-5.916-5.461-6.372-12.971-1.365-20.025 3.413-5.006 3.868-5.006 68.267-5.006 61.668 0 64.853 0.228 69.177 4.551 5.916 5.916 5.689 11.605-0.228 19.115l-4.551 5.916h-63.26c-60.302 0-63.26-0.228-68.039-4.551zM618.951 579.982c-5.689-5.689-5.916-16.384-0.228-21.39 3.868-3.413 10.695-3.868 64.171-3.868l60.075 0.228 5.234 5.916c5.916 6.599 5.234 13.198-2.276 19.797-4.096 3.413-10.695 3.868-63.488 3.868-55.979 0-59.164-0.228-63.488-4.551zM265.33 518.315c-7.054-5.461-7.737-12.971-1.593-20.48 4.324-5.461 4.779-5.461 58.709-6.144 59.164-0.91 68.949 0.455 73.045 9.785 3.186 6.827 0.455 15.701-6.144 19.115-2.731 1.593-25.486 2.503-61.212 2.503-53.931 0-57.116-0.228-62.805-4.779zM442.823 518.315c-7.054-5.461-7.737-12.971-1.593-20.48l4.324-5.461h128.341l4.324 5.461c5.916 7.054 5.461 12.971-1.365 19.57l-5.461 5.689h-61.212c-58.482 0-61.44-0.228-67.356-4.779zM622.364 520.363c-2.503-1.365-5.234-3.641-6.144-5.006-3.413-4.779-1.82-14.336 2.958-18.66 4.324-3.868 9.557-4.324 58.709-5.006 58.709-0.91 68.494 0.455 72.59 9.785 3.186 6.827 0.455 15.701-6.144 19.115-6.372 3.413-115.826 3.186-121.97-0.228zM268.971 459.378c-12.288-5.006-11.605-22.756 1.138-27.534 3.868-1.365 27.307-2.048 62.578-1.593 62.35 0.683 63.943 1.138 63.943 15.474s-1.593 14.791-65.081 15.246c-31.63 0.228-59.62-0.455-62.578-1.593zM448.284 460.060c-11.605-4.324-15.019-17.067-6.599-24.804 4.551-4.096 9.102-4.324 68.494-4.324h63.716l4.324 5.461c5.916 7.054 5.461 12.971-1.365 19.57l-5.461 5.689-59.847-0.228c-32.996 0-61.44-0.683-63.26-1.365zM622.364 458.923c-2.503-1.365-5.234-3.641-6.144-5.006-3.413-4.779-1.82-14.336 2.958-18.66 4.324-3.868 9.557-4.324 58.709-5.006 58.937-0.91 68.494 0.455 72.59 9.785 3.413 7.509-1.365 18.204-9.102 20.252-9.785 2.503-114.233 1.365-119.012-1.365zM265.102 394.752c-3.186-3.186-5.689-7.737-5.689-10.468 0-2.503 2.503-7.282 5.689-10.468l5.689-5.689 59.164 0.683c65.308 0.683 66.674 1.138 66.674 15.474s-1.365 14.791-66.674 15.474l-59.164 0.683-5.689-5.689zM442.823 395.435c-3.868-2.958-5.916-6.827-5.916-11.15s2.048-8.192 5.916-11.15c5.916-4.551 8.875-4.779 67.356-4.779h61.212l5.461 5.689c3.186 2.958 5.689 7.737 5.689 10.24s-2.503 7.282-5.689 10.24l-5.461 5.689h-61.212c-58.482 0-61.44-0.228-67.356-4.779zM620.316 395.435c-7.964-6.372-7.964-15.929 0-22.3 5.689-4.551 8.875-4.779 60.985-4.779 30.037 0 57.116 0.683 60.075 1.365 2.731 0.91 6.599 4.324 8.647 7.964 2.958 5.916 2.958 7.282 0 13.198-2.048 3.641-5.916 7.054-8.647 7.964-2.958 0.683-30.037 1.365-60.075 1.365-52.11 0-55.296-0.228-60.985-4.779zM311.068 184.036c-22.3-5.689-43.236-22.528-54.158-43.691-7.737-14.791-8.647-44.146-2.048-61.44 9.557-25.714 37.092-47.332 64.626-50.745 26.169-3.413 58.027 11.378 73.5 33.906 34.133 50.062 1.593 119.012-58.482 123.108-8.192 0.455-18.66 0-23.438-1.138zM355.442 146.261c14.336-9.785 20.48-23.211 19.57-42.098-1.138-20.48-8.647-32.085-26.169-40.050-28.672-13.198-58.482 1.138-66.901 32.313-5.461 19.797 6.827 44.828 26.169 53.931 14.108 6.599 34.816 4.779 47.332-4.096zM482.19 177.436l-6.599-6.599v-62.805c0-41.643 0.91-64.398 2.503-68.267 3.868-8.647 13.198-11.378 33.906-9.785 31.403 2.048 53.931 16.156 68.494 43.008 6.827 12.971 7.509 16.156 7.737 33.678 0 16.839-0.91 20.935-6.372 31.175-16.384 31.403-41.188 46.194-77.369 46.194-14.108 0-16.156-0.683-22.3-6.599zM538.624 143.986c13.881-11.378 17.522-17.749 18.432-33.451 0.683-11.378 0-16.384-3.641-23.438-7.964-15.474-21.39-24.576-39.14-26.396l-7.964-0.683-0.683 46.421-0.455 46.421 12.516-1.138c9.557-0.91 14.564-2.731 20.935-7.737zM690.859 180.622c-24.121-8.42-37.092-36.864-27.534-59.847 8.192-19.57 22.528-27.534 52.11-29.355 23.438-1.365 28.672-4.324 28.672-15.474 0-13.198-4.324-14.791-41.87-15.474-32.313-0.455-33.906-0.683-38.002-5.916-6.144-7.509-5.461-15.019 1.593-20.48 5.461-4.324 9.102-4.779 35.499-4.779 37.319 0 47.787 2.503 60.075 14.791 18.432 18.432 18.432 45.284-0.228 63.716-10.923 11.15-22.756 14.791-46.194 14.791-16.156 0-20.48 2.048-23.893 12.060-2.048 5.689 2.958 15.246 8.42 16.384 2.731 0.455 18.204 1.365 34.816 1.593 27.989 0.683 30.265 0.91 35.726 6.144 7.509 7.054 7.509 12.516 0.228 19.57-5.234 5.461-6.372 5.689-38.002 5.689-21.618-0.228-35.499-1.138-41.415-3.413z" />
<glyph unicode="&#xe906;" glyph-name="pdf" d="M208.668 931.783c-12.743-4.779-25.486-14.108-32.085-24.348-13.426-20.252-12.743 3.413-12.288-460.8 0.683-397.995 0.91-425.756 4.551-433.948 7.054-15.474 17.294-26.169 32.085-33.451l14.108-6.827 609.849 1.138 9.33 5.006c12.060 6.372 22.528 16.839 28.9 28.9l5.006 9.33 0.683 358.4 0.455 358.4-100.807 100.807-100.807 100.58h-225.052c-183.637-0.228-226.873-0.683-233.927-3.186zM646.258 832.114v-71.225l6.599-13.653c6.827-14.564 15.019-22.983 30.72-31.403 8.875-4.779 12.288-5.006 81.692-5.689l72.135-0.683v-448.057h-641.707l0.455 309.020c0.683 293.547 0.91 309.248 4.779 316.302 2.503 4.779 7.737 9.33 13.653 12.060 9.102 4.096 18.204 4.324 220.729 4.324h210.944v-70.997zM761.856 742.002c-29.127-0.455-56.206 0-59.847 0.683-7.964 1.365-18.66 10.468-21.845 18.66-1.138 2.958-2.048 30.72-2.048 61.668v56.206l136.533-136.533-52.793-0.683zM836.949 135.794l-0.683-91.705-6.144-11.605c-6.827-12.971-17.067-22.756-26.396-25.486-8.192-2.048-564.11-2.048-572.302 0.228-10.695 2.958-23.666 16.839-28.9 30.265-4.324 11.833-4.551 17.522-4.551 101.035v88.747h639.659l-0.683-91.477zM321.081 869.433c-73.273-0.455-83.513-0.91-87.154-4.324-3.868-3.413-4.096-8.875-4.096-74.866v-71.225l6.144-4.779c5.916-4.551 7.509-4.779 91.25-4.096l85.106 0.683 4.324 5.461c4.096 5.006 4.324 9.785 4.324 71.908 0 36.864-0.91 69.404-2.048 72.363-1.138 3.186-5.006 6.372-8.647 7.509-3.413 1.138-43.691 1.82-89.202 1.365zM389.12 790.471v-48.924h-127.431v97.849h127.431v-48.924zM461.938 867.612c-10.012-4.324-10.923-20.252-1.365-26.396 1.365-0.91 34.361-1.82 73.273-1.82 67.584 0 70.997 0.228 74.866 4.551 5.234 5.689 5.006 15.246-0.455 20.708-4.096 4.096-8.647 4.551-72.135 5.006-47.104 0.228-69.86-0.455-74.183-2.048zM457.387 800.256c-5.689-6.144-5.916-13.426-0.228-20.252l4.324-5.461 65.764-0.683c41.415-0.455 68.494 0.228 73.728 1.593 12.971 3.868 15.929 15.246 7.054 25.941-3.186 3.413-9.557 3.868-74.638 3.868-70.315 0-71.225 0-76.004-5.006zM458.524 735.858c-3.186-2.958-5.689-7.509-5.689-10.24 0-2.503 2.503-7.282 5.689-10.24l5.461-5.689h66.674c36.636 0 68.949 0.683 71.908 1.365 11.833 3.186 13.881 22.3 2.958 27.989-2.958 1.593-29.127 2.503-73.045 2.503h-68.494l-5.461-5.689zM237.113 676.238c-1.593-0.683-4.324-4.096-6.144-7.509-4.096-7.737-1.593-16.612 5.461-20.252 2.958-1.593 28.9-2.503 72.59-2.503 65.536 0 68.267 0.228 74.183 4.779 7.509 5.916 7.737 15.474 0.683 22.073-5.234 5.006-6.372 5.006-74.638 4.779-38.002 0-70.542-0.683-72.135-1.365zM426.667 672.142c-7.509-7.282-7.282-15.474 0.228-21.39 5.234-4.096 9.33-4.779 27.307-4.779 24.121 0 30.492 3.186 30.492 15.929s-6.144 15.929-30.72 15.929c-20.025 0-22.3-0.455-27.307-5.689zM522.24 672.142c-3.186-2.958-5.689-7.509-5.689-10.24 0-2.503 2.503-7.282 5.689-10.24l5.461-5.689h268.060l4.779 5.234c6.372 6.827 6.372 15.474-0.228 21.618l-5.234 5.006h-267.378l-5.461-5.689zM237.568 611.84c-6.599-2.731-11.15-14.108-7.964-20.252 1.365-2.503 4.551-5.689 7.054-7.054 2.731-1.365 40.96-2.276 105.586-2.276 98.532 0 101.717 0.228 106.041 4.551 6.599 6.599 5.916 16.839-1.365 22.528-5.916 4.779-8.192 4.779-105.358 4.551-54.613 0-101.262-0.91-103.993-2.048zM490.382 608.427c-6.827-6.827-7.054-12.288-0.91-20.252 4.551-5.689 5.689-5.916 26.169-5.916 12.060 0 23.666 1.138 26.169 2.503 7.054 3.641 9.557 12.516 5.461 20.025-4.096 7.964-8.647 9.33-32.54 9.33-17.067 0-19.342-0.455-24.348-5.689zM590.052 611.385c-10.24-4.779-10.695-21.39-0.91-26.624 2.958-1.593 38.457-2.503 105.813-2.503 98.532 0 101.717 0.228 106.041 4.551 6.599 6.599 5.916 16.839-1.365 22.528-5.916 4.779-8.192 4.779-105.358 4.551-65.081 0-101.035-0.91-104.22-2.503zM238.933 547.442c-2.958-1.593-7.054-5.461-8.875-8.875-3.186-5.689-3.186-6.599 1.138-12.516l4.779-6.372 136.078-0.683c124.245-0.455 136.533-0.228 140.402 3.186 5.689 5.234 5.234 17.294-0.683 22.756-4.551 4.096-10.695 4.324-136.078 4.779-101.945 0.455-132.21 0-136.761-2.276zM559.559 547.897c-7.509-2.731-11.833-11.605-9.102-18.66 3.641-9.785 7.509-10.923 32.085-10.24 22.3 0.683 23.666 0.91 27.989 6.827 3.868 5.234 4.096 7.054 1.82 12.971-1.82 4.096-5.461 7.737-9.785 9.102-8.647 2.958-34.816 2.958-43.008 0zM658.773 548.807c-7.737-2.048-12.516-7.964-12.516-15.474 0-14.791 0.455-14.791 80.327-14.791 71.68 0 71.908 0 75.321 5.006 5.006 7.054 4.551 16.156-1.138 21.39-4.551 4.096-9.33 4.324-71.225 4.779-36.409 0.228-68.267-0.228-70.77-0.91zM232.334 478.492c-6.372-8.192-5.916-11.378 2.048-19.342l6.599-6.827 139.492 1.365 4.324 5.461c5.234 6.372 5.461 13.426 0.683 20.252-3.413 5.006-3.641 5.006-76.004 5.006h-72.59l-4.551-5.916zM425.529 479.858c-8.875-8.875-3.413-22.983 10.24-26.396 3.186-0.683 13.198-0.91 22.528-0.455 19.797 0.91 26.396 5.006 26.396 16.612 0 12.288-5.234 14.791-31.403 14.791-20.252 0-23.893-0.683-27.762-4.551zM521.33 478.492c-6.144-7.737-5.916-10.695 0.683-18.432l5.461-6.372 128.341-0.683c137.444-0.683 143.588-0.228 147.456 10.012 3.186 8.192 2.731 10.923-2.276 16.384l-4.779 5.006h-270.336l-4.551-5.916zM398.677 195.186c-2.503-0.91-5.689-3.868-7.054-6.372-1.593-2.958-2.503-29.127-2.503-73.956v-69.404l5.916-4.551c5.006-4.096 9.33-4.779 25.714-4.779 43.463 0 72.818 15.929 88.519 47.559 5.234 11.15 6.144 15.474 5.916 33.223 0 16.612-0.91 22.528-5.234 31.175-13.426 27.534-39.14 44.828-68.949 46.649-9.102 0.455-21.39 1.138-27.079 1.593-5.689 0.228-12.516-0.228-15.246-1.138zM459.89 158.322c14.108-7.509 22.983-20.935 24.348-36.864 2.503-30.948-19.797-53.476-52.793-53.476h-10.468v95.573h14.336c10.923 0 17.067-1.365 24.576-5.234zM286.492 190.18c-6.599-3.641-12.288-9.102-16.839-16.384l-6.827-10.923-0.683-58.709c-0.683-56.661-0.455-58.937 4.096-63.488 5.689-5.689 13.881-5.916 20.708-0.228 5.234 4.096 5.461 6.144 6.144 33.223l0.91 28.9 8.42-1.365c32.085-5.006 61.212 27.762 52.565 58.709-8.192 29.81-41.643 44.373-68.494 30.265zM320.853 159.004c2.503-2.503 4.551-7.054 4.551-10.24 0-6.599-9.102-17.067-14.791-17.067-4.551 0-12.971 4.324-15.246 7.737-2.958 4.551-1.82 15.701 2.048 20.025 5.006 5.461 17.522 5.461 23.438-0.455zM579.129 191.772c-10.012-5.461-19.115-14.564-24.576-24.804-4.779-8.647-5.006-12.060-5.006-65.536v-56.661l5.461-4.324c6.827-5.689 14.108-5.461 20.252 0.228 4.551 4.324 5.006 6.827 5.006 31.858v27.307h15.701c19.115 0 28.444 2.958 31.63 10.24 2.731 6.144 1.593 11.378-3.641 17.749-2.731 3.186-7.282 3.868-23.893 3.868h-20.48l1.138 11.378c1.82 17.522 5.689 20.48 27.989 20.48 23.438 0 31.63 2.731 35.499 11.605 2.276 5.916 2.048 7.737-1.82 12.971-4.551 5.916-5.234 6.144-30.492 6.599-20.025 0.455-27.534-0.228-32.768-2.958z" />
<glyph unicode="&#xe907;" glyph-name="print" d="M299.463 911.303c-12.288-4.096-18.204-7.737-25.486-15.474-15.929-16.839-16.839-23.211-16.839-105.813v-71.225h-116.053v-94.891l-26.852-1.138c-15.929-0.91-30.037-2.731-35.044-4.779-12.743-5.234-26.169-18.887-30.492-30.72-2.276-5.916-4.779-11.605-5.916-12.743-2.503-2.958-2.503-366.592 0-371.826 1.138-2.048 4.779-9.785 8.42-17.067 7.054-14.564 18.66-24.348 34.133-28.672 5.916-1.593 38.002-2.503 90.34-2.503h81.237l0.683-65.308c0.683-71.68 1.138-73.956 15.019-89.657 3.868-4.324 11.833-10.468 17.977-13.426l10.923-5.689h418.702l11.15 5.689c6.144 3.186 14.564 9.785 18.887 14.564 12.971 15.474 14.336 24.348 14.336 92.615v60.985l171.804 1.365 12.288 6.827c13.426 7.509 20.708 16.839 27.534 35.499 4.324 11.833 4.551 18.66 4.551 189.326 0 172.032-0.228 177.493-4.551 191.374-5.689 17.294-16.839 30.948-30.72 37.774-8.192 3.868-15.929 5.234-37.547 6.144l-27.307 1.365v94.891h-116.053v71.225c0 83.968-0.91 89.657-17.977 106.496-8.42 8.42-13.653 11.605-26.624 15.474-15.929 4.779-19.115 4.779-210.489 4.551h-194.332l-15.701-5.234zM718.393 870.343l6.372-5.461 1.365-241.664h-430.535l1.365 241.664 12.743 10.923h402.318l6.372-5.461zM257.138 651.662v-28.444h-77.369v56.889h77.369v-28.444zM841.956 651.662v-28.444h-77.369v56.889h77.369v-28.444zM934.798 576.569l5.006-6.144-0.455-184.32-0.683-184.32-5.461-4.324c-5.006-4.096-10.012-4.324-86.926-4.324h-81.692v97.849h-507.449v-97.849h-80.555c-44.373 0-82.375 0.683-84.423 1.365-10.24 4.096-10.24 3.413-10.24 195.015 0 177.948 0 180.907 4.551 186.596 2.503 3.186 6.827 6.144 9.785 6.599 2.731 0.455 191.374 0.455 419.157 0.228l414.151-0.455 5.234-5.916zM724.764 140.345v-110.82l-10.468-10.468h-406.869l-10.468 10.468-0.683 108.316c-0.228 59.847 0 109.909 0.455 111.502 0.91 2.503 41.188 2.958 214.585 2.503l213.447-0.683v-110.82zM375.467 797.298v-19.342h270.791v38.684h-270.791v-19.342zM375.467 699.449v-19.342h270.791v38.684h-270.791v-19.342zM142.677 485.319c-0.91-0.91-1.593-9.785-1.593-19.57v-17.749h38.912l-0.683 18.887-0.683 18.66-17.067 0.683c-9.557 0.228-17.977 0-18.887-0.91zM238.933 467.342v-19.342h38.912l-0.683 18.887-0.683 18.66-37.547 1.365v-19.57zM375.467 135.111v-19.342h270.791v38.684h-270.791v-19.342z" />
<glyph unicode="&#xe908;" glyph-name="txt" d="M209.351 923.819c-15.701-4.779-31.858-18.66-40.050-34.361-4.096-7.737-4.324-23.211-4.324-441.458s0.228-433.721 4.324-441.458c7.054-13.426 21.845-27.079 35.044-31.858 11.833-4.551 17.977-4.551 309.476-4.551 277.845 0 298.098 0.228 308.565 3.868 14.336 5.234 28.444 17.749 35.499 31.63l5.689 11.15 0.683 353.849 0.455 353.849-201.387 201.387-224.142-0.228c-123.335 0-226.645-0.91-229.831-1.82zM642.162 821.874c0.683-69.632 0.91-72.818 5.689-81.692 7.737-14.336 15.019-22.073 28.444-29.355l12.060-6.827 144.498-1.365v-445.781h-637.156v307.428c0 304.014 0 307.655 4.551 314.937 9.557 15.474-3.186 14.791 230.286 14.791h210.944l0.683-72.135zM742.286 803.669c36.181-36.181 65.536-66.219 65.536-67.129 0-1.138-24.804-1.82-55.296-1.82-81.692 0-78.962-2.731-78.962 78.962 0 30.492 0.683 55.296 1.593 55.296 1.138 0 31.175-29.355 67.129-65.308zM831.716 133.973c0-89.657 0-89.884-5.461-101.945-6.372-13.881-17.294-24.348-29.127-27.534-12.060-3.413-553.643-3.413-565.703 0-11.378 3.186-22.756 13.426-29.127 26.624-5.461 10.695-5.461 11.605-6.144 99.214-0.455 48.469-0.228 89.657 0.455 91.477 1.138 2.731 49.152 3.186 318.123 2.731l316.985-0.683v-89.884zM233.244 824.604c-3.186-2.958-5.689-7.509-5.689-10.24 0-2.503 2.503-7.282 5.689-10.24l5.461-5.689h83.968c81.465 0 84.196 0.228 90.112 4.779 7.509 5.916 7.737 15.474 0.683 22.073-5.234 5.006-6.144 5.006-90.112 5.006h-84.651l-5.461-5.689zM233.244 761.116c-6.827-7.054-7.282-12.516-0.91-20.48l4.551-5.916h150.187c147.001 0 149.959 0 154.51 4.551 5.234 5.234 5.916 15.474 1.365 21.845-3.186 4.096-7.737 4.324-153.6 5.006l-150.414 0.455-5.689-5.461zM232.334 665.088c-6.144-7.964-5.916-13.426 0.91-20.252l5.461-5.689h67.356c66.446 0 74.411 0.683 78.962 7.737 3.186 4.779 1.82 15.019-2.731 19.57-4.324 4.324-7.509 4.551-74.866 4.551h-70.542l-4.551-5.916zM423.481 665.088c-6.144-7.964-5.916-13.426 0.91-20.252 5.006-5.234 7.282-5.689 25.714-5.689 23.666 0 32.313 4.324 32.313 16.156 0 12.516-6.372 15.701-31.63 15.701-21.845 0-22.756-0.228-27.307-5.916zM519.054 665.088c-6.144-7.964-5.916-13.426 0.91-20.252l5.461-5.689h131.755c129.934 0 131.982 0 137.899 4.779 7.509 5.916 7.737 15.474 0.683 22.073l-5.234 5.006h-266.923l-4.551-5.916zM233.244 601.6c-3.186-2.958-5.689-7.509-5.689-10.24 0-2.503 2.503-7.282 5.689-10.24l5.461-5.689h101.49c98.304 0 101.49 0.228 105.813 4.551 4.551 4.551 5.916 14.791 2.731 19.57-4.779 7.282-12.060 7.737-110.82 7.737h-99.214l-5.461-5.689zM488.107 601.828c-7.282-7.282-7.282-13.653 0-20.708 5.006-5.234 7.282-5.689 27.307-5.689 24.348 0 30.72 3.186 30.72 15.474 0 12.971-4.096 15.246-29.355 15.929-21.845 0.91-22.983 0.683-28.672-5.006zM583.68 601.6c-3.186-2.958-5.689-7.509-5.689-10.24 0-2.503 2.503-7.282 5.689-10.24l5.461-5.689h99.897c97.621 0 100.124 0 106.041 4.779 3.868 2.958 5.916 6.827 5.916 11.15s-2.048 8.192-5.916 11.15c-5.916 4.779-8.42 4.779-106.041 4.779h-99.897l-5.461-5.689zM233.244 537.884c-3.186-2.958-5.689-7.509-5.689-10.24 0-2.503 2.503-7.282 5.689-10.24l5.461-5.689h131.072c131.072 0 137.899 0.455 142.677 7.737 3.186 4.779 1.82 15.019-2.731 19.57s-7.509 4.551-137.671 4.551h-133.348l-5.461-5.689zM550.912 537.657c-6.144-7.964-5.916-13.426 0.91-20.252 5.006-5.234 7.282-5.689 25.714-5.689 23.666 0 32.313 4.324 32.313 16.156 0 12.516-6.372 15.701-31.63 15.701-21.845 0-22.756-0.228-27.307-5.916zM646.485 537.657c-6.144-7.964-5.916-13.426 0.91-20.252l5.461-5.689h68.039c65.536 0 68.267 0.228 74.183 4.779 7.509 5.916 7.737 15.474 0.683 22.073-5.234 5.006-6.599 5.006-74.866 5.006h-69.86l-4.551-5.916zM233.244 474.169c-3.186-2.958-5.689-7.509-5.689-10.24 0-2.503 2.503-7.282 5.689-10.24l5.461-5.689h69.632c66.446 0 69.632 0.228 73.956 4.551 4.551 4.551 5.916 14.791 2.731 19.57-4.551 7.054-12.516 7.737-78.962 7.737h-67.356l-5.461-5.689zM424.391 474.169c-3.186-2.958-5.689-7.509-5.689-10.24 0-2.503 2.503-7.282 5.689-10.24 5.006-5.234 7.282-5.689 26.852-5.689 18.204 0 21.845 0.683 26.169 4.551 5.006 4.551 6.599 14.564 3.186 19.57-3.641 5.461-12.516 7.737-31.175 7.737-17.749 0-20.025-0.455-25.031-5.689zM519.964 474.169c-3.186-2.958-5.689-7.509-5.689-10.24 0-2.503 2.503-7.282 5.689-10.24l5.461-5.689h264.42l5.461 5.689c3.186 2.958 5.689 7.737 5.689 10.24s-2.503 7.282-5.689 10.24l-5.461 5.689h-264.42l-5.461-5.689zM265.102 187.449c-6.827-6.827-7.054-12.288-0.91-20.252 3.868-5.006 6.372-5.916 15.929-5.916h11.15v-58.709c0-58.482 0-58.937 5.234-63.716 7.282-6.827 16.156-6.372 21.845 0.91 4.551 5.689 4.779 8.875 4.779 63.716v57.799h10.923c18.66 0 27.079 14.564 15.246 26.169-5.461 5.461-6.144 5.689-42.098 5.689s-36.636-0.228-42.098-5.689zM392.533 187.449c-9.557-9.33-8.875-11.378 18.66-48.242 12.743-16.612 18.66-26.624 17.522-28.444-1.138-1.593-10.923-15.019-21.845-29.81s-20.025-28.9-20.025-31.403c0-5.689 9.785-15.701 15.474-15.701 6.827 0 14.108 7.054 31.175 30.492 8.875 11.833 16.384 21.618 17.067 21.618s8.42-9.785 17.067-21.618c17.067-23.438 24.348-30.492 31.175-30.492 5.689 0 15.474 10.012 15.474 15.474 0 2.503-9.785 17.522-21.618 33.678-11.833 15.929-21.618 29.81-21.618 30.492s8.875 12.971 19.57 27.307c10.695 14.336 20.48 27.989 21.845 30.265 5.461 10.24-6.144 24.121-17.522 21.163-3.641-0.91-11.833-9.785-24.121-25.941-10.012-13.426-19.115-24.348-20.252-24.348s-10.24 10.923-20.025 24.121c-22.3 29.582-27.307 32.313-38.002 21.39zM552.050 188.359c-7.282-5.689-7.964-15.929-1.365-22.528 3.413-3.413 7.509-4.551 15.929-4.551h11.378v-57.799c0-54.841 0.228-58.027 4.779-63.716 5.689-7.054 12.971-7.509 21.163-1.138l5.916 4.551v118.101h11.15c9.557 0 12.060 0.91 15.929 5.916 6.144 7.964 5.916 13.426-0.91 20.252-5.461 5.461-6.372 5.689-41.643 5.689-33.223 0-36.864-0.455-42.325-4.779z" />
<glyph unicode="&#xe909;" glyph-name="xls" d="M229.148 918.13c-20.48-7.509-34.816-21.618-42.78-42.325-4.096-11.15-4.324-22.3-4.324-426.212 0-458.069-0.91-427.804 14.336-448.057 10.24-13.426 27.989-23.666 46.649-26.852 10.695-1.593 94.208-2.276 284.9-1.82 306.29 0.683 280.348-0.91 303.787 20.48 8.875 7.964 13.653 14.564 16.839 23.666 4.779 12.288 4.779 15.019 4.779 367.957v355.442l-180.907 180.907h-217.316c-176.811-0.228-218.908-0.683-225.963-3.186zM641.707 823.467c1.138-72.818 1.593-74.866 14.791-90.567 8.42-10.012 20.48-17.522 35.271-21.845 9.785-2.958 24.121-3.641 72.135-3.641h59.847v-459.662l-610.987 1.138-0.683 302.421c-0.228 202.069 0.228 305.152 1.82 311.068 2.958 10.695 12.288 22.073 21.618 26.169 5.461 2.503 44.373 2.958 205.938 2.503l199.111-0.455 1.138-67.129zM810.098 738.588c0-1.138-24.804-1.593-55.068-1.138-59.392 0.683-62.578 1.365-73.956 13.653-8.875 9.557-9.785 15.929-9.785 73.045v55.068l69.404-69.404c38.229-38.229 69.404-70.315 69.404-71.225zM823.751 125.554c0-91.932-0.228-92.843-5.234-101.945-3.186-5.916-8.42-10.923-15.246-14.108l-10.012-5.234h-274.887c-227.1 0-276.252 0.455-282.396 3.186-9.557 3.868-18.887 15.019-22.073 25.941-1.365 5.006-2.276 43.008-2.276 96.711v88.064h612.124v-92.615zM277.845 640.057c-6.144-7.737-5.916-11.378 0.91-17.977l5.461-5.689h57.572c64.853 0 67.812 0.683 67.812 14.564 0 14.791-1.593 15.019-67.812 15.019h-59.392l-4.551-5.916zM454.428 641.877c-5.234-5.689-4.779-15.474 0.683-20.935 4.324-4.324 7.509-4.551 67.129-4.551s62.805 0.228 67.129 4.551c2.503 2.503 4.551 7.054 4.551 10.24s-2.048 7.737-4.551 10.24c-4.324 4.324-7.509 4.551-67.812 4.551-58.709 0-63.716-0.228-67.129-4.096zM630.329 641.422c-2.503-2.503-4.551-7.054-4.551-10.24s2.048-7.737 4.551-10.24c4.324-4.324 7.509-4.551 63.716-4.551s59.392 0.228 63.716 4.551c2.503 2.503 4.551 7.054 4.551 10.24s-2.048 7.737-4.551 10.24c-4.324 4.324-7.509 4.551-63.716 4.551s-59.392-0.228-63.716-4.551zM280.804 582.713c-2.958-2.048-7.737-10.468-7.737-14.108 0-1.365 2.503-5.006 5.689-7.964l5.461-5.689h57.572c65.081 0 67.812 0.683 67.812 14.791 0 14.791-0.455 14.791-66.674 14.791-32.768 0-60.757-0.91-62.123-1.82zM454.428 580.437c-5.234-5.689-4.779-15.474 0.683-20.935 4.324-4.324 7.509-4.551 66.674-4.551 59.392 0 62.35 0.228 67.129 4.551 5.916 5.461 6.372 12.971 1.365 20.025-3.413 5.006-3.868 5.006-67.812 5.006-59.392 0-64.626-0.228-68.039-4.096zM629.646 580.437c-5.234-5.689-4.779-15.474 0.683-20.935 4.324-4.324 7.509-4.551 63.26-4.551 58.482 0 58.937 0 63.716 5.234 5.916 6.144 6.372 12.288 1.365 19.342-3.413 5.006-4.096 5.006-64.398 5.006-56.206 0-61.212-0.228-64.626-4.096zM280.804 521.273c-2.958-2.048-7.737-10.468-7.737-14.108 0-1.365 2.503-5.006 5.689-7.964l5.461-5.689h58.254c55.068 0 58.254 0.228 62.578 4.551 5.461 5.461 5.916 16.384 0.91 21.39-2.958 3.186-11.833 3.641-63.033 3.641-32.768 0-60.757-0.91-62.123-1.82zM454.428 518.997c-4.779-5.234-5.006-14.108-0.683-20.025 3.186-4.096 7.054-4.324 65.536-5.006 60.53-0.683 62.578-0.455 68.494 4.096 7.282 5.689 8.192 15.701 2.048 21.163-3.641 3.413-11.833 3.868-68.039 3.868-58.709 0-63.943-0.228-67.356-4.096zM629.646 518.997c-5.689-6.372-4.779-15.246 2.048-20.708 5.689-4.551 8.875-4.779 62.35-4.779s56.661 0.228 62.35 4.779c6.599 5.234 7.509 12.288 2.276 19.797-3.413 5.006-4.096 5.006-64.398 5.006-56.206 0-61.212-0.228-64.626-4.096zM277.618 458.24c-4.324-5.006-3.641-16.612 0.91-21.163 3.413-3.413 10.695-3.868 57.799-4.551 60.302-0.91 70.087 0.455 72.363 10.24 0.91 3.186 0.683 8.647-0.455 11.833l-2.048 5.916-62.805 0.683c-54.841 0.455-63.26 0-65.764-2.958zM454.201 458.012c-4.551-4.551-4.779-15.474-0.228-20.025 5.689-5.461 14.791-6.144 74.183-5.461 51.428 0.683 56.661 1.138 60.985 5.006 5.916 5.461 6.144 15.246 0.683 20.252-3.641 3.413-11.833 3.868-68.267 3.868-55.068 0-64.398-0.455-67.356-3.641zM629.646 457.557c-5.234-5.689-4.779-14.791 0.91-20.025 4.551-4.096 8.875-4.324 63.488-4.324s58.937 0.228 63.488 4.324c5.916 5.234 6.144 15.246 0.683 20.252-3.641 3.413-11.605 3.868-64.626 3.868-55.524 0-60.53-0.228-63.943-4.096zM281.714 399.986c-5.916-3.413-8.875-10.24-7.282-17.067 2.731-10.695 11.15-12.288 67.812-12.288 49.607 0 61.668 1.365 65.536 7.509 3.186 5.006 1.82 15.246-2.731 19.797-4.324 4.324-7.509 4.551-61.895 4.551-34.588 0-59.164-1.138-61.44-2.503zM459.662 400.896c-9.785-3.413-12.060-17.749-4.324-24.804 4.551-4.096 9.102-4.324 66.901-4.324s62.35 0.228 66.901 4.324c6.827 6.144 6.144 15.929-1.138 21.618-5.916 4.551-8.647 4.779-65.536 4.551-32.54 0-60.985-0.683-62.805-1.365zM631.694 397.71c-7.282-5.689-7.964-15.474-1.138-21.618 4.551-4.096 8.875-4.324 63.943-4.324h59.164l4.324 5.461c6.144 7.509 5.461 15.019-1.593 20.48-5.689 4.551-8.875 4.779-62.35 4.779s-56.661-0.228-62.35-4.779zM293.547 185.628c-2.958-1.593-6.599-5.461-7.737-8.875-1.82-5.234 0-9.785 14.108-34.361 9.102-15.701 16.384-29.355 16.384-30.492 0-1.365-7.054-15.019-15.929-30.492-8.647-15.474-15.929-29.81-15.929-32.085 0-5.461 7.964-13.198 13.881-13.198 8.42 0 12.743 4.096 23.893 23.893 6.144 10.695 11.833 19.342 12.516 19.342 0.91 0 6.827-9.102 13.198-20.252 11.378-20.025 14.564-22.983 23.211-22.983 5.689 0 13.426 7.964 13.426 13.881 0 2.731-6.599 16.384-14.564 30.265-8.192 13.881-15.474 26.852-16.156 28.672-0.683 2.048 5.461 15.474 14.791 31.858 17.294 30.72 18.66 36.636 8.875 43.691-9.557 7.282-15.929 2.731-29.81-20.935-6.599-11.15-12.516-20.48-13.198-20.48s-5.689 8.42-11.378 18.432c-9.102 16.156-18.204 27.079-22.528 27.079-0.683 0-3.868-1.365-7.054-2.958zM481.28 185.856c-2.503-1.365-5.234-3.641-6.144-5.006s-1.82-32.768-1.82-69.86c0-62.35 0.228-67.584 4.096-70.997 3.641-3.186 10.012-3.868 40.96-3.868 33.906 0 37.319 0.455 41.415 4.551 6.144 6.144 5.689 12.743-1.138 19.342-5.234 5.461-7.054 5.689-30.72 5.689h-25.031v55.524c0 49.607-0.455 55.979-3.868 60.075-5.234 5.916-12.060 7.737-17.749 4.551zM675.385 186.311c-20.252-6.144-33.678-23.211-33.678-43.008 0-14.564 4.096-24.348 13.881-33.678 10.012-9.33 17.067-11.833 38.229-13.426 24.804-1.82 26.852-2.503 29.355-9.33 2.503-7.737 0-15.474-6.144-18.66-2.503-1.365-17.749-2.503-34.816-2.503-35.044 0-40.505-2.048-40.505-14.564 0-13.653 3.868-15.019 43.236-15.019 30.72 0 36.181 0.683 44.601 4.779 27.762 13.426 33.678 49.607 11.378 71.68-11.15 11.15-21.163 14.564-43.918 14.564-18.887 0-25.714 4.096-25.714 15.474 0 12.060 5.234 14.108 35.499 14.108 32.768 0 43.463 2.503 46.649 10.923 2.958 7.737-0.455 15.701-8.42 18.66-6.827 2.731-60.757 2.731-69.632 0z" />
</font></defs></svg>